Prophet Modelling Interface for fable • fable.prophet
…
Note that the annual seasonal pattern does not change very quickly, although it does differ slightly between years. A very differently seasonal pattern can be seen for the Northern Territory. We can also produce forecasts for each of these series over the next two years.

fc <- fit %>%
  forecast(h = 24)

#> # A fable: 192 x 6 [1M]
#> # Key:     State, Industry, .model [8]
#>    State             Industry                 .model    Month     Turnover .mean
#>    <chr>             <chr>                    <chr>     <mth>       <dist> <dbl>
#>  1 Australian Capit… Cafes, restaurants and … proph… 2019 Jan sample[1000]  40.2
#>  2 Australian Capit… Cafes, restaurants and … proph… 2019 Feb sample[1000]  42.9
#>  3 Australian Capit… Cafes, restaurants and … proph… 2019 Mar sample[1000]  47.9
#>  4 Australian Capit… Cafes, restaurants and … proph… 2019 Apr sample[1000]  46.2
#>  5 Australian Capit… Cafes, restaurants and … proph… 2019 May sample[1000]  45.3
#>  6 Australian Capit… Cafes, restaurants and … proph… 2019 Jun sample[1000]  46.2
#>  7 Australian Capit… Cafes, restaurants and … proph… 2019 Jul sample[1000]  45.5
#>  8 Australian Capit… Cafes, restaurants and … proph… 2019 Aug sample[1000]  46.7
#>  9 Australian Capit… Cafes, restaurants and … proph… 2019 Sep sample[1000]  47.7
#> 10 Australian Capit… Cafes, restaurants and … proph… 2019 Oct sample[1000]  46.8
#> # … with 182 more rows
…
