…
The above output confirms that this Prophet model has been fitted to
each of the time series. We can then produce forecasts for each of these
series over the next two years.

``` r
fc <- fit %>% 
  forecast(h = 24)
```

    #> # A fable: 192 x 6 [1M]
    #> # Key:     State, Industry, .model [8]
    #>    State         Industry           .model     Month Turnover .distribution
    #>    <chr>         <chr>              <chr>      <mth>    <dbl> <dist>       
    #>  1 Australian C… Cafes, restaurant… proph…  2018 Oct     45.2 sim(dbl[1000…
    #>  2 Australian C… Cafes, restaurant… proph…  2018 Nov     46.4 sim(dbl[1000…
    #>  3 Australian C… Cafes, restaurant… proph…  2018 Dec     46.2 sim(dbl[1000…
    #>  4 Australian C… Cafes, restaurant… proph…  2019 Jan     43.4 sim(dbl[1000…
    #>  5 Australian C… Cafes, restaurant… proph…  2019 Feb     44.1 sim(dbl[1000…
    #>  6 Australian C… Cafes, restaurant… proph…  2019 Mar     46.4 sim(dbl[1000…
    #>  7 Australian C… Cafes, restaurant… proph…  2019 Apr     46.1 sim(dbl[1000…
    #>  8 Australian C… Cafes, restaurant… proph…  2019 May     45.7 sim(dbl[1000…
    #>  9 Australian C… Cafes, restaurant… proph…  2019 Jun     46.3 sim(dbl[1000…
    #> 10 Australian C… Cafes, restaurant… proph…  2019 Jul     46.0 sim(dbl[1000…
    #> # ... with 182 more rows
…
