Introduction to the fable interface for prophet • fable.prophet
…
# Read in the data
lax_passengers <- read.csv("https://raw.githubusercontent.com/mitchelloharawild/fable.prophet/master/data-raw/lax_passengers.csv")

# Tidy and summarise the data for comparison of international and domestic passenger counts
library(dplyr)
library(lubridate)
lax_passengers <- lax_passengers %>%
  mutate(datetime = mdy_hms(ReportPeriod)) %>%
  group_by(month = yearmonth(datetime), type = Domestic_International) %>%
  summarise(passengers = sum(Passenger_Count)) %>%
  ungroup()

lax_passengers
#> # A tibble: 318 x 3
#>       month type          passengers
#>       <mth> <chr>              <int>
#>  1 2006 Jan Domestic         3315937
#>  2 2006 Jan International    1440222
#>  3 2006 Feb Domestic         3045963
#>  4 2006 Feb International    1204192
#>  5 2006 Mar Domestic         3711057
#>  6 2006 Mar International    1379237
#>  7 2006 Apr Domestic         3683040
#>  8 2006 Apr International    1404834
#>  9 2006 May Domestic         3743141
#> 10 2006 May International    1434267
#> # … with 308 more rows

The data.frame created contains two time series, one for domestic and another for international passenger counts. A data.frame can be converted to a tsibble using as_tsibble() and specifying the index and key variable(s). In this case the time variable (the index) is date, and the type variable is the key as it uniquely identifies each time series.

# Convert to a tsibble
library(tsibble)
lax_passengers <- as_tsibble(lax_passengers, index = month, key = type)
lax_passengers
#> # A tsibble: 318 x 3 [1M]
#> # Key:       type [2]
#>       month type     passengers
#>       <mth> <chr>         <int>
#>  1 2006 Jan Domestic    3315937
#>  2 2006 Feb Domestic    3045963
#>  3 2006 Mar Domestic    3711057
#>  4 2006 Apr Domestic    3683040
#>  5 2006 May Domestic    3743141
#>  6 2006 Jun Domestic    3994798
#>  7 2006 Jul Domestic    4236581
#>  8 2006 Aug Domestic    4128492
#>  9 2006 Sep Domestic    3386421
#> 10 2006 Oct Domestic    3598030
#> # … with 308 more rows
…
Peak monthly passenger counts seem to occur in July, and the minimum is in February (although be wary of differences in the number of days in each month!). You can see that the model’s seasonal term changes slightly from year to year, especially for domestic passengers in March and November.

Forecasting with prophet

Forecasts from an estimated model can be produced using the forecast() function. If the model has not used exogenous regressors, the number of forecasts (forecast horizon) can be easily specified using the h argument. If exogenous regressors have been used, these will need to be included in a tsibble passed to the new_data argument.

To forecast three years into the future, we can set h = "3 years".

fc <- fit %>%
  forecast(h = "3 years")
fc
#> # A fable: 72 x 5 [1M]
#> # Key:     type, .model [2]
#>    type     .model    month   passengers    .mean
#>    <chr>    <chr>     <mth>       <dist>    <dbl>
#>  1 Domestic mdl    2019 Apr sample[1000] 5219948.
#>  2 Domestic mdl    2019 May sample[1000] 5497976.
#>  3 Domestic mdl    2019 Jun sample[1000] 5810878.
#>  4 Domestic mdl    2019 Jul sample[1000] 6152100.
#>  5 Domestic mdl    2019 Aug sample[1000] 5993096.
#>  6 Domestic mdl    2019 Sep sample[1000] 4996091.
#>  7 Domestic mdl    2019 Oct sample[1000] 5348274.
#>  8 Domestic mdl    2019 Nov sample[1000] 5139732.
#>  9 Domestic mdl    2019 Dec sample[1000] 5321233.
#> 10 Domestic mdl    2020 Jan sample[1000] 4872981.
#> # … with 62 more rows
…
